{
	"info": {
		"_postman_id": "4c9f2df3-e966-4378-a36a-bf7a81f38731",
		"name": "MockTask Docker-compose",
		"schema": "https://schema.getpostman.com/json/collection/v2.1.0/collection.json"
	},
	"item": [
		{
			"name": "Add_guesser",
			"request": {
				"method": "POST",
				"header": [],
				"body": {
					"mode": "raw",
					"raw": "{\n    \"BeginAt\": 22,\n    \"IncrementBy\": 3,\n    \"SleepMs\": 1000\n}",
					"options": {
						"raw": {
							"language": "json"
						}
					}
				},
				"url": {
					"raw": "localhost:7000/add_guesser",
					"host": [
						"localhost"
					],
					"port": "7000",
					"path": [
						"add_guesser"
					]
				}
			},
			"response": []
		},
		{
			"name": "Remove_guesser",
			"request": {
				"method": "POST",
				"header": [],
				"body": {
					"mode": "raw",
					"raw": "{\n    \"GuesserId\": \"0\"\n}",
					"options": {
						"raw": {
							"language": "json"
						}
					}
				},
				"url": {
					"raw": "localhost:7000/remove_guesser",
					"host": [
						"localhost"
					],
					"port": "7000",
					"path": [
						"remove_guesser"
					]
				}
			},
			"response": []
		},
		{
			"name": "Add_number",
			"request": {
				"method": "POST",
				"header": [],
				"body": {
					"mode": "raw",
					"raw": "{\n    \"Number\": 22\n}",
					"options": {
						"raw": {
							"language": "json"
						}
					}
				},
				"url": {
					"raw": "localhost:8090/add_number",
					"host": [
						"localhost"
					],
					"port": "8090",
					"path": [
						"add_number"
					]
				}
			},
			"response": []
		},
		{
			"name": "Remove_number",
			"request": {
				"method": "POST",
				"header": [],
				"body": {
					"mode": "raw",
					"raw": "{\n    \"Number\": 22\n}",
					"options": {
						"raw": {
							"language": "json"
						}
					}
				},
				"url": {
					"raw": "localhost:8090/remove_number",
					"host": [
						"localhost"
					],
					"port": "8090",
					"path": [
						"remove_number"
					]
				}
			},
			"response": []
		},
		{
			"name": "Query_number",
			"request": {
				"method": "POST",
				"header": [],
				"body": {
					"mode": "raw",
					"raw": "{\n    \"Number\": 33\n}",
					"options": {
						"raw": {
							"language": "json"
						}
					}
				},
				"url": {
					"raw": "localhost:8090/query_number",
					"host": [
						"localhost"
					],
					"port": "8090",
					"path": [
						"query_number"
					]
				}
			},
			"response": []
		},
		{
			"name": "Query_guesser",
			"request": {
				"method": "POST",
				"header": [],
				"body": {
					"mode": "raw",
					"raw": "{\n    \"GuesserId\": \"2\"\n}",
					"options": {
						"raw": {
							"language": "json"
						}
					}
				},
				"url": {
					"raw": "localhost:8090/query_guesser",
					"host": [
						"localhost"
					],
					"port": "8090",
					"path": [
						"query_guesser"
					]
				}
			},
			"response": []
		},
		{
			"name": "Query_primes",
			"request": {
				"method": "POST",
				"header": [],
				"body": {
					"mode": "raw",
					"raw": "{\n    \"GuesserId\": \"1\",\n    \"ClearDb\" : true\n}",
					"options": {
						"raw": {
							"language": "json"
						}
					}
				},
				"url": {
					"raw": "localhost:8090/query_primes",
					"host": [
						"localhost"
					],
					"port": "8090",
					"path": [
						"query_primes"
					]
				}
			},
			"response": []
		}
	]
}